## Interface: 80000
## Title: Gio |cff00ffffElvUI|r
## Author: Gio
## Credit: Blazeflack, Elv, WA Discord
## Version: 1.0
## Notes: Cosas nasis de la ElvUI
## RequiredDeps: ElvUI
## LoadOnDemand: 1
## LoadWith: ElvUI
## X-eMail: xergio@gmail.com

main.lua
